%YAML 1.1
%TAG !u! tag:unity3d.com,2011:
--- !u!1 &122555003933978643
GameObject:
  m_ObjectHideFlags: 0
  m_CorrespondingSourceObject: {fileID: 0}
  m_PrefabInstance: {fileID: 0}
  m_PrefabAsset: {fileID: 0}
  serializedVersion: 6
  m_Component:
  - component: {fileID: 122555003933978644}
  - component: {fileID: 122555003933978645}
  - component: {fileID: 3926972886793641754}
  - component: {fileID: 5955854908059408403}
  - component: {fileID: 5228616181077267067}
  m_Layer: 0
  m_Name: Targeting Manager
  m_TagString: Untagged
  m_Icon: {fileID: 0}
  m_NavMeshLayer: 0
  m_StaticEditorFlags: 0
  m_IsActive: 1
--- !u!4 &122555003933978644
Transform:
  m_ObjectHideFlags: 0
  m_CorrespondingSourceObject: {fileID: 0}
  m_PrefabInstance: {fileID: 0}
  m_PrefabAsset: {fileID: 0}
  m_GameObject: {fileID: 122555003933978643}
  m_LocalRotation: {x: 0, y: 0, z: 0, w: 1}
  m_LocalPosition: {x: 0, y: 0, z: 0}
  m_LocalScale: {x: 1, y: 1, z: 1}
  m_Children: []
  m_Father: {fileID: 0}
  m_RootOrder: 0
  m_LocalEulerAnglesHint: {x: 0, y: 0, z: 0}
--- !u!114 &122555003933978645
MonoBehaviour:
  m_ObjectHideFlags: 0
  m_CorrespondingSourceObject: {fileID: 0}
  m_PrefabInstance: {fileID: 0}
  m_PrefabAsset: {fileID: 0}
  m_GameObject: {fileID: 122555003933978643}
  m_Enabled: 1
  m_EditorHideFlags: 0
  m_Script: {fileID: 11500000, guid: 3c3850414ef30464699829307f1f9ddc, type: 3}
  m_Name: 
  m_EditorClassIdentifier: 
  canTarget: 1
  ChangeTarget:
    m_PersistentCalls:
      m_Calls:
      - m_Target: {fileID: 11400000, guid: 4f17cb49d8d078c4ca72134e0449b0e2, type: 2}
        m_TargetAssemblyTypeName: CharacterEventChannel, Assembly-CSharp
        m_MethodName: Raise
        m_Mode: 0
        m_Arguments:
          m_ObjectArgument: {fileID: 0}
          m_ObjectArgumentAssemblyTypeName: UnityEngine.Object, UnityEngine
          m_IntArgument: 0
          m_FloatArgument: 0
          m_StringArgument: 
          m_BoolArgument: 0
        m_CallState: 2
--- !u!114 &3926972886793641754
MonoBehaviour:
  m_ObjectHideFlags: 0
  m_CorrespondingSourceObject: {fileID: 0}
  m_PrefabInstance: {fileID: 0}
  m_PrefabAsset: {fileID: 0}
  m_GameObject: {fileID: 122555003933978643}
  m_Enabled: 1
  m_EditorHideFlags: 0
  m_Script: {fileID: 11500000, guid: 4c6eafcf283845249aa877502e4473c3, type: 3}
  m_Name: 
  m_EditorClassIdentifier: 
  channel: {fileID: 11400000, guid: c02cecb62917df04fa7825a9087a8c49, type: 2}
  response:
    m_PersistentCalls:
      m_Calls:
      - m_Target: {fileID: 122555003933978645}
        m_TargetAssemblyTypeName: TargetingManager, Assembly-CSharp
        m_MethodName: InvokeChangeTarget
        m_Mode: 0
        m_Arguments:
          m_ObjectArgument: {fileID: 0}
          m_ObjectArgumentAssemblyTypeName: UnityEngine.Object, UnityEngine
          m_IntArgument: 0
          m_FloatArgument: 0
          m_StringArgument: 
          m_BoolArgument: 0
        m_CallState: 2
--- !u!114 &5955854908059408403
MonoBehaviour:
  m_ObjectHideFlags: 0
  m_CorrespondingSourceObject: {fileID: 0}
  m_PrefabInstance: {fileID: 0}
  m_PrefabAsset: {fileID: 0}
  m_GameObject: {fileID: 122555003933978643}
  m_Enabled: 1
  m_EditorHideFlags: 0
  m_Script: {fileID: 11500000, guid: 52a0f7c248f1b3a47bee7ba643d64c8e, type: 3}
  m_Name: 
  m_EditorClassIdentifier: 
  channel: {fileID: 11400000, guid: ebeda41ed5d556a42bc12c9337a04b56, type: 2}
  response:
    m_PersistentCalls:
      m_Calls:
      - m_Target: {fileID: 122555003933978645}
        m_TargetAssemblyTypeName: TargetingManager, Assembly-CSharp
        m_MethodName: EnableTargeting
        m_Mode: 1
        m_Arguments:
          m_ObjectArgument: {fileID: 0}
          m_ObjectArgumentAssemblyTypeName: UnityEngine.Object, UnityEngine
          m_IntArgument: 0
          m_FloatArgument: 0
          m_StringArgument: 
          m_BoolArgument: 0
        m_CallState: 2
--- !u!114 &5228616181077267067
MonoBehaviour:
  m_ObjectHideFlags: 0
  m_CorrespondingSourceObject: {fileID: 0}
  m_PrefabInstance: {fileID: 0}
  m_PrefabAsset: {fileID: 0}
  m_GameObject: {fileID: 122555003933978643}
  m_Enabled: 1
  m_EditorHideFlags: 0
  m_Script: {fileID: 11500000, guid: 52a0f7c248f1b3a47bee7ba643d64c8e, type: 3}
  m_Name: 
  m_EditorClassIdentifier: 
  channel: {fileID: 11400000, guid: 59266398b2a8c994e8de4f6db757bdc9, type: 2}
  response:
    m_PersistentCalls:
      m_Calls:
      - m_Target: {fileID: 122555003933978645}
        m_TargetAssemblyTypeName: TargetingManager, Assembly-CSharp
        m_MethodName: DisableTargeting
        m_Mode: 1
        m_Arguments:
          m_ObjectArgument: {fileID: 0}
          m_ObjectArgumentAssemblyTypeName: UnityEngine.Object, UnityEngine
          m_IntArgument: 0
          m_FloatArgument: 0
          m_StringArgument: 
          m_BoolArgument: 0
        m_CallState: 2
