%YAML 1.1
%TAG !u! tag:unity3d.com,2011:
--- !u!114 &11400000
MonoBehaviour:
  m_ObjectHideFlags: 0
  m_CorrespondingSourceObject: {fileID: 0}
  m_PrefabInstance: {fileID: 0}
  m_PrefabAsset: {fileID: 0}
  m_GameObject: {fileID: 0}
  m_Enabled: 1
  m_EditorHideFlags: 0
  m_Script: {fileID: 11500000, guid: b345d198cbd642c42be4861c39e8b0d4, type: 3}
  m_Name: Tutorial Goblin Mage Stats
  m_EditorClassIdentifier: 
  maximumHealth: 1
  type: 2
  attack: 4
