%YAML 1.1
%TAG !u! tag:unity3d.com,2011:
--- !u!114 &11400000
MonoBehaviour:
  m_ObjectHideFlags: 0
  m_CorrespondingSourceObject: {fileID: 0}
  m_PrefabInstance: {fileID: 0}
  m_PrefabAsset: {fileID: 0}
  m_GameObject: {fileID: 0}
  m_Enabled: 1
  m_EditorHideFlags: 0
  m_Script: {fileID: 11500000, guid: 96bd607ff77180842a2008903516c1b8, type: 3}
  m_Name: Lunge
  m_EditorClassIdentifier: 
  skillName: Lunge
  isAOE: 0
  modifier: 0
  skillType: 0
  skillLevel:
  - diceNumber: 2
    dieSize: 3
  - diceNumber: 3
    dieSize: 3
  - diceNumber: 4
    dieSize: 3
  - diceNumber: 5
    dieSize: 3
